{
"help": "http://datos.energia.gob.ar/api/3/action/help_show?name=datastore_search",
"success": true,
"result": {
"sort": "provincia",
"include_total": true,
"resource_id": "80ac25de-a44a-4445-9215-090cf55cfda5",
"distinct": true,
"fields": [
{
"type": "text",
"id": "indice_tiempo"
},
{
"type": "numeric",
"id": "idempresa"
},
{
"type": "text",
"id": "cuit"
},
{
"type": "text",
"id": "empresa"
},
{
"type": "text",
"id": "direccion"
},
{
"type": "text",
"id": "localidad"
},
{
"type": "text",
"id": "provincia"
},
{
"type": "text",
"id": "region"
},
{
"type": "numeric",
"id": "idproducto"
},
{
"type": "text",
"id": "producto"
},
{
"type": "numeric",
"id": "idtipohorario"
},
{
"type": "text",
"id": "tipohorario"
},
{
"type": "numeric",
"id": "precio"
},
{
"type": "timestamp",
"id": "fecha_vigencia"
},
{
"type": "numeric",
"id": "idempresabandera"
},
{
"type": "text",
"id": "empresabandera"
},
{
"type": "numeric",
"id": "latitud"
},
{
"type": "numeric",
"id": "longitud"
},
{
"type": "text",
"id": "geojson"
}
],
"records_format": "objects",
"records": [
{
"provincia": "BUENOS AIRES"
},
{
"provincia": "CAPITAL FEDERAL"
},
{
"provincia": "CATAMARCA"
},
{
"provincia": "CHACO"
},
{
"provincia": "CHUBUT"
},
{
"provincia": "CORDOBA"
},
{
"provincia": "CORRIENTES"
},
{
"provincia": "ENTRE RIOS"
},
{
"provincia": "FORMOSA"
},
{
"provincia": "JUJUY"
},
{
"provincia": "LA PAMPA"
},
{
"provincia": "LA RIOJA"
},
{
"provincia": "MENDOZA"
},
{
"provincia": "MISIONES"
},
{
"provincia": "NEUQUEN"
},
{
"provincia": "RIO NEGRO"
},
{
"provincia": "SALTA"
},
{
"provincia": "SAN JUAN"
},
{
"provincia": "SAN LUIS"
},
{
"provincia": "SANTA CRUZ"
},
{
"provincia": "SANTA FE"
},
{
"provincia": "SANTIAGO DEL ESTERO"
},
{
"provincia": "TIERRA DEL FUEGO"
},
{
"provincia": "TUCUMAN"
}
],
"_links": {
"start": "/api/3/action/datastore_search?distinct=true&fields=provincia&resource_id=80ac25de-a44a-4445-9215-090cf55cfda5&sort=provincia",
"next": "/api/3/action/datastore_search?distinct=true&fields=provincia&resource_id=80ac25de-a44a-4445-9215-090cf55cfda5&offset=100&sort=provincia"
},
"total": 36755
}
}